([('login_handler',
   '/home/bijay/PycharmProjects/ellipses_ellipses/build/login_handler/login_handler',
   'EXECUTABLE'),
  ('libexpat.so.1', '/lib/x86_64-linux-gnu/libexpat.so.1', 'BINARY'),
  ('libz.so.1', '/lib/x86_64-linux-gnu/libz.so.1', 'BINARY'),
  ('mmap',
   '/usr/lib/python3.5/lib-dynload/mmap.cpython-35m-x86_64-linux-gnu.so',
   'EXTENSION'),
  ('_multiprocessing',
   '/usr/lib/python3.5/lib-dynload/_multiprocessing.cpython-35m-x86_64-linux-gnu.so',
   'EXTENSION'),
  ('resource',
   '/usr/lib/python3.5/lib-dynload/resource.cpython-35m-x86_64-linux-gnu.so',
   'EXTENSION'),
  ('_ssl',
   '/usr/lib/python3.5/lib-dynload/_ssl.cpython-35m-x86_64-linux-gnu.so',
   'EXTENSION'),
  ('_codecs_cn',
   '/usr/lib/python3.5/lib-dynload/_codecs_cn.cpython-35m-x86_64-linux-gnu.so',
   'EXTENSION'),
  ('_codecs_tw',
   '/usr/lib/python3.5/lib-dynload/_codecs_tw.cpython-35m-x86_64-linux-gnu.so',
   'EXTENSION'),
  ('_codecs_jp',
   '/usr/lib/python3.5/lib-dynload/_codecs_jp.cpython-35m-x86_64-linux-gnu.so',
   'EXTENSION'),
  ('_codecs_iso2022',
   '/usr/lib/python3.5/lib-dynload/_codecs_iso2022.cpython-35m-x86_64-linux-gnu.so',
   'EXTENSION'),
  ('_codecs_hk',
   '/usr/lib/python3.5/lib-dynload/_codecs_hk.cpython-35m-x86_64-linux-gnu.so',
   'EXTENSION'),
  ('_codecs_kr',
   '/usr/lib/python3.5/lib-dynload/_codecs_kr.cpython-35m-x86_64-linux-gnu.so',
   'EXTENSION'),
  ('_multibytecodec',
   '/usr/lib/python3.5/lib-dynload/_multibytecodec.cpython-35m-x86_64-linux-gnu.so',
   'EXTENSION'),
  ('_opcode',
   '/usr/lib/python3.5/lib-dynload/_opcode.cpython-35m-x86_64-linux-gnu.so',
   'EXTENSION'),
  ('readline',
   '/usr/lib/python3.5/lib-dynload/readline.cpython-35m-x86_64-linux-gnu.so',
   'EXTENSION'),
  ('_ctypes',
   '/usr/lib/python3.5/lib-dynload/_ctypes.cpython-35m-x86_64-linux-gnu.so',
   'EXTENSION'),
  ('termios',
   '/usr/lib/python3.5/lib-dynload/termios.cpython-35m-x86_64-linux-gnu.so',
   'EXTENSION'),
  ('_hashlib',
   '/usr/lib/python3.5/lib-dynload/_hashlib.cpython-35m-x86_64-linux-gnu.so',
   'EXTENSION'),
  ('_bz2',
   '/usr/lib/python3.5/lib-dynload/_bz2.cpython-35m-x86_64-linux-gnu.so',
   'EXTENSION'),
  ('_lzma',
   '/usr/lib/python3.5/lib-dynload/_lzma.cpython-35m-x86_64-linux-gnu.so',
   'EXTENSION'),
  ('_decimal',
   '/usr/lib/python3.5/lib-dynload/_decimal.cpython-35m-x86_64-linux-gnu.so',
   'EXTENSION'),
  ('_json',
   '/usr/lib/python3.5/lib-dynload/_json.cpython-35m-x86_64-linux-gnu.so',
   'EXTENSION'),
  ('psycopg2._psycopg',
   '/home/bijay/PycharmProjects/ellipses_ellipses/venv/lib/python3.5/site-packages/psycopg2/_psycopg.cpython-35m-x86_64-linux-gnu.so',
   'EXTENSION'),
  ('markupsafe._speedups',
   '/home/bijay/PycharmProjects/ellipses_ellipses/venv/lib/python3.5/site-packages/markupsafe/_speedups.cpython-35m-x86_64-linux-gnu.so',
   'EXTENSION'),
  ('libcrypto.so.1.0.0', '/lib/x86_64-linux-gnu/libcrypto.so.1.0.0', 'BINARY'),
  ('libssl.so.1.0.0', '/lib/x86_64-linux-gnu/libssl.so.1.0.0', 'BINARY'),
  ('libreadline.so.6', '/lib/x86_64-linux-gnu/libreadline.so.6', 'BINARY'),
  ('libtinfo.so.5', '/lib/x86_64-linux-gnu/libtinfo.so.5', 'BINARY'),
  ('libbz2.so.1.0', '/lib/x86_64-linux-gnu/libbz2.so.1.0', 'BINARY'),
  ('liblzma.so.5', '/lib/x86_64-linux-gnu/liblzma.so.5', 'BINARY'),
  ('libmpdec.so.2', '/usr/lib/x86_64-linux-gnu/libmpdec.so.2', 'BINARY'),
  ('libpq-bd31fe2b.so.5.11',
   '/home/bijay/PycharmProjects/ellipses_ellipses/venv/lib/python3.5/site-packages/psycopg2/.libs/libpq-bd31fe2b.so.5.11',
   'BINARY'),
  ('libselinux-cf8f9094.so.1',
   '/home/bijay/PycharmProjects/ellipses_ellipses/venv/lib/python3.5/site-packages/psycopg2/.libs/libselinux-cf8f9094.so.1',
   'BINARY'),
  ('libsepol-b4f5b513.so.1',
   '/home/bijay/PycharmProjects/ellipses_ellipses/venv/lib/python3.5/site-packages/psycopg2/.libs/libsepol-b4f5b513.so.1',
   'BINARY'),
  ('liblber-2-d7edd0dc.4.so.2.10.7',
   '/home/bijay/PycharmProjects/ellipses_ellipses/venv/lib/python3.5/site-packages/psycopg2/.libs/././liblber-2-d7edd0dc.4.so.2.10.7',
   'BINARY'),
  ('libcrypto-c1fa9491.so.1.0.2q',
   '/home/bijay/PycharmProjects/ellipses_ellipses/venv/lib/python3.5/site-packages/psycopg2/.libs/./libcrypto-c1fa9491.so.1.0.2q',
   'BINARY'),
  ('libcom_err-beb60336.so.2.1',
   '/home/bijay/PycharmProjects/ellipses_ellipses/venv/lib/python3.5/site-packages/psycopg2/.libs/libcom_err-beb60336.so.2.1',
   'BINARY'),
  ('libk5crypto-622ef25b.so.3.1',
   '/home/bijay/PycharmProjects/ellipses_ellipses/venv/lib/python3.5/site-packages/psycopg2/.libs/libk5crypto-622ef25b.so.3.1',
   'BINARY'),
  ('libkrb5-fb0d2caa.so.3.3',
   '/home/bijay/PycharmProjects/ellipses_ellipses/venv/lib/python3.5/site-packages/psycopg2/.libs/libkrb5-fb0d2caa.so.3.3',
   'BINARY'),
  ('libsasl2-e96a0dbf.so.2.0.22',
   '/home/bijay/PycharmProjects/ellipses_ellipses/venv/lib/python3.5/site-packages/psycopg2/.libs/././libsasl2-e96a0dbf.so.2.0.22',
   'BINARY'),
  ('libz-a147dcb0.so.1.2.3',
   '/home/bijay/PycharmProjects/ellipses_ellipses/venv/lib/python3.5/site-packages/psycopg2/.libs/libz-a147dcb0.so.1.2.3',
   'BINARY'),
  ('libldap_r-2-9270213a.4.so.2.10.7',
   '/home/bijay/PycharmProjects/ellipses_ellipses/venv/lib/python3.5/site-packages/psycopg2/.libs/./libldap_r-2-9270213a.4.so.2.10.7',
   'BINARY'),
  ('libkrb5support-d7ce89d4.so.0.1',
   '/home/bijay/PycharmProjects/ellipses_ellipses/venv/lib/python3.5/site-packages/psycopg2/.libs/libkrb5support-d7ce89d4.so.0.1',
   'BINARY'),
  ('libkeyutils-1-ff31573b.2.so',
   '/home/bijay/PycharmProjects/ellipses_ellipses/venv/lib/python3.5/site-packages/psycopg2/.libs/libkeyutils-1-ff31573b.2.so',
   'BINARY'),
  ('libssl-c0c2ede4.so.1.0.2q',
   '/home/bijay/PycharmProjects/ellipses_ellipses/venv/lib/python3.5/site-packages/psycopg2/.libs/./libssl-c0c2ede4.so.1.0.2q',
   'BINARY'),
  ('libgssapi_krb5-174f8956.so.2.2',
   '/home/bijay/PycharmProjects/ellipses_ellipses/venv/lib/python3.5/site-packages/psycopg2/.libs/./libgssapi_krb5-174f8956.so.2.2',
   'BINARY'),
  ('libpython3.5m.so.1.0',
   '/usr/lib/x86_64-linux-gnu/libpython3.5m.so.1.0',
   'BINARY'),
  ('base_library.zip',
   '/home/bijay/PycharmProjects/ellipses_ellipses/build/login_handler/base_library.zip',
   'DATA'),
  ('include/python3.5m/pyconfig.h',
   '/usr/include/python3.5m/pyconfig.h',
   'DATA'),
  ('lib2to3/Grammar.txt', '/usr/lib/python3.5/lib2to3/Grammar.txt', 'DATA'),
  ('lib2to3/PatternGrammar.txt',
   '/usr/lib/python3.5/lib2to3/PatternGrammar.txt',
   'DATA'),
  ('lib/python3.5/config-3.5m-x86_64-linux-gnu/Makefile',
   '/usr/lib/python3.5/config-3.5m-x86_64-linux-gnu/Makefile',
   'DATA')],)
