('/home/bijay/PycharmProjects/ellipses_ellipses/build/login_handler/login_handler',
 True,
 False,
 True,
 None,
 None,
 False,
 False,
 None,
 True,
 'login_handler.pkg',
 [('PYZ-00.pyz',
   '/home/bijay/PycharmProjects/ellipses_ellipses/build/login_handler/PYZ-00.pyz',
   'PYZ'),
  ('struct',
   '/home/bijay/PycharmProjects/ellipses_ellipses/build/login_handler/localpycos/struct.pyo',
   'PYMODULE'),
  ('pyimod01_os_path',
   '/home/bijay/PycharmProjects/ellipses_ellipses/venv/lib/python3.5/site-packages/PyInstaller/loader/pyimod01_os_path.pyc',
   'PYMODULE'),
  ('pyimod02_archive',
   '/home/bijay/PycharmProjects/ellipses_ellipses/venv/lib/python3.5/site-packages/PyInstaller/loader/pyimod02_archive.pyc',
   'PYMODULE'),
  ('pyimod03_importers',
   '/home/bijay/PycharmProjects/ellipses_ellipses/venv/lib/python3.5/site-packages/PyInstaller/loader/pyimod03_importers.pyc',
   'PYMODULE'),
  ('pyiboot01_bootstrap',
   '/home/bijay/PycharmProjects/ellipses_ellipses/venv/lib/python3.5/site-packages/PyInstaller/loader/pyiboot01_bootstrap.py',
   'PYSOURCE'),
  ('pyi_rth_pkgres',
   '/home/bijay/PycharmProjects/ellipses_ellipses/venv/lib/python3.5/site-packages/PyInstaller/loader/rthooks/pyi_rth_pkgres.py',
   'PYSOURCE'),
  ('pyi_rth_multiprocessing',
   '/home/bijay/PycharmProjects/ellipses_ellipses/venv/lib/python3.5/site-packages/PyInstaller/loader/rthooks/pyi_rth_multiprocessing.py',
   'PYSOURCE'),
  ('login_handler',
   '/home/bijay/PycharmProjects/ellipses_ellipses/login_handler.py',
   'PYSOURCE')],
 [],
 False,
 False,
 1554392435,
 [('run',
   '/home/bijay/PycharmProjects/ellipses_ellipses/venv/lib/python3.5/site-packages/PyInstaller/bootloader/Linux-64bit/run',
   'EXECUTABLE')])
