('/home/bijay/PycharmProjects/ellipses_ellipses/build/login_handler/PKG-00.pkg',
 {'BINARY': 1,
  'DATA': 1,
  'EXECUTABLE': 1,
  'EXTENSION': 1,
  'PYMODULE': 1,
  'PYSOURCE': 1,
  'PYZ': 0},
 [('PYZ-00.pyz',
   '/home/bijay/PycharmProjects/ellipses_ellipses/build/login_handler/PYZ-00.pyz',
   'PYZ'),
  ('struct',
   '/home/bijay/PycharmProjects/ellipses_ellipses/build/login_handler/localpycos/struct.pyo',
   'PYMODULE'),
  ('pyimod01_os_path',
   '/home/bijay/PycharmProjects/ellipses_ellipses/venv/lib/python3.5/site-packages/PyInstaller/loader/pyimod01_os_path.pyc',
   'PYMODULE'),
  ('pyimod02_archive',
   '/home/bijay/PycharmProjects/ellipses_ellipses/venv/lib/python3.5/site-packages/PyInstaller/loader/pyimod02_archive.pyc',
   'PYMODULE'),
  ('pyimod03_importers',
   '/home/bijay/PycharmProjects/ellipses_ellipses/venv/lib/python3.5/site-packages/PyInstaller/loader/pyimod03_importers.pyc',
   'PYMODULE'),
  ('pyiboot01_bootstrap',
   '/home/bijay/PycharmProjects/ellipses_ellipses/venv/lib/python3.5/site-packages/PyInstaller/loader/pyiboot01_bootstrap.py',
   'PYSOURCE'),
  ('pyi_rth_pkgres',
   '/home/bijay/PycharmProjects/ellipses_ellipses/venv/lib/python3.5/site-packages/PyInstaller/loader/rthooks/pyi_rth_pkgres.py',
   'PYSOURCE'),
  ('pyi_rth_multiprocessing',
   '/home/bijay/PycharmProjects/ellipses_ellipses/venv/lib/python3.5/site-packages/PyInstaller/loader/rthooks/pyi_rth_multiprocessing.py',
   'PYSOURCE'),
  ('login_handler',
   '/home/bijay/PycharmProjects/ellipses_ellipses/login_handler.py',
   'PYSOURCE')],
 True,
 False,
 False)
