('/home/bijay/PycharmProjects/ellipses_ellipses/build/login_handler/PYZ-00.pyz',
 [('multiprocessing.popen_fork',
   '/usr/lib/python3.5/multiprocessing/popen_fork.py',
   'PYMODULE'),
  ('multiprocessing.connection',
   '/usr/lib/python3.5/multiprocessing/connection.py',
   'PYMODULE'),
  ('multiprocessing.resource_sharer',
   '/usr/lib/python3.5/multiprocessing/resource_sharer.py',
   'PYMODULE'),
  ('multiprocessing.process',
   '/usr/lib/python3.5/multiprocessing/process.py',
   'PYMODULE'),
  ('multiprocessing.context',
   '/usr/lib/python3.5/multiprocessing/context.py',
   'PYMODULE'),
  ('multiprocessing.popen_forkserver',
   '/usr/lib/python3.5/multiprocessing/popen_forkserver.py',
   'PYMODULE'),
  ('multiprocessing.popen_spawn_posix',
   '/usr/lib/python3.5/multiprocessing/popen_spawn_posix.py',
   'PYMODULE'),
  ('multiprocessing.semaphore_tracker',
   '/usr/lib/python3.5/multiprocessing/semaphore_tracker.py',
   'PYMODULE'),
  ('multiprocessing.forkserver',
   '/usr/lib/python3.5/multiprocessing/forkserver.py',
   'PYMODULE'),
  ('multiprocessing.sharedctypes',
   '/usr/lib/python3.5/multiprocessing/sharedctypes.py',
   'PYMODULE'),
  ('multiprocessing.heap',
   '/usr/lib/python3.5/multiprocessing/heap.py',
   'PYMODULE'),
  ('bisect', '/usr/lib/python3.5/bisect.py', 'PYMODULE'),
  ('multiprocessing.pool',
   '/usr/lib/python3.5/multiprocessing/pool.py',
   'PYMODULE'),
  ('multiprocessing.dummy',
   '/usr/lib/python3.5/multiprocessing/dummy/__init__.py',
   'PYMODULE'),
  ('multiprocessing.dummy.connection',
   '/usr/lib/python3.5/multiprocessing/dummy/connection.py',
   'PYMODULE'),
  ('queue', '/usr/lib/python3.5/queue.py', 'PYMODULE'),
  ('multiprocessing.queues',
   '/usr/lib/python3.5/multiprocessing/queues.py',
   'PYMODULE'),
  ('multiprocessing.synchronize',
   '/usr/lib/python3.5/multiprocessing/synchronize.py',
   'PYMODULE'),
  ('multiprocessing.managers',
   '/usr/lib/python3.5/multiprocessing/managers.py',
   'PYMODULE'),
  ('xmlrpc.client', '/usr/lib/python3.5/xmlrpc/client.py', 'PYMODULE'),
  ('xmlrpc', '/usr/lib/python3.5/xmlrpc/__init__.py', 'PYMODULE'),
  ('hmac', '/usr/lib/python3.5/hmac.py', 'PYMODULE'),
  ('multiprocessing.reduction',
   '/usr/lib/python3.5/multiprocessing/reduction.py',
   'PYMODULE'),
  ('multiprocessing.util',
   '/usr/lib/python3.5/multiprocessing/util.py',
   'PYMODULE'),
  ('multiprocessing.popen_spawn_win32',
   '/usr/lib/python3.5/multiprocessing/popen_spawn_win32.py',
   'PYMODULE'),
  ('multiprocessing.spawn',
   '/usr/lib/python3.5/multiprocessing/spawn.py',
   'PYMODULE'),
  ('runpy', '/usr/lib/python3.5/runpy.py', 'PYMODULE'),
  ('multiprocessing',
   '/usr/lib/python3.5/multiprocessing/__init__.py',
   'PYMODULE'),
  ('pkg_resources',
   '/home/bijay/PycharmProjects/ellipses_ellipses/venv/lib/python3.5/site-packages/setuptools-39.1.0-py3.5.egg/pkg_resources/__init__.py',
   'PYMODULE'),
  ('pkg_resources._vendor.packaging.specifiers',
   '/home/bijay/PycharmProjects/ellipses_ellipses/venv/lib/python3.5/site-packages/setuptools-39.1.0-py3.5.egg/pkg_resources/_vendor/packaging/specifiers.py',
   'PYMODULE'),
  ('pkg_resources._vendor.packaging.__about__',
   '/home/bijay/PycharmProjects/ellipses_ellipses/venv/lib/python3.5/site-packages/setuptools-39.1.0-py3.5.egg/pkg_resources/_vendor/packaging/__about__.py',
   'PYMODULE'),
  ('pkg_resources._vendor.appdirs',
   '/home/bijay/PycharmProjects/ellipses_ellipses/venv/lib/python3.5/site-packages/setuptools-39.1.0-py3.5.egg/pkg_resources/_vendor/appdirs.py',
   'PYMODULE'),
  ('pkg_resources._vendor.pyparsing',
   '/home/bijay/PycharmProjects/ellipses_ellipses/venv/lib/python3.5/site-packages/setuptools-39.1.0-py3.5.egg/pkg_resources/_vendor/pyparsing.py',
   'PYMODULE'),
  ('uuid', '/usr/lib/python3.5/uuid.py', 'PYMODULE'),
  ('ctypes.util', '/usr/lib/python3.5/ctypes/util.py', 'PYMODULE'),
  ('pkg_resources._vendor.packaging.requirements',
   '/home/bijay/PycharmProjects/ellipses_ellipses/venv/lib/python3.5/site-packages/setuptools-39.1.0-py3.5.egg/pkg_resources/_vendor/packaging/requirements.py',
   'PYMODULE'),
  ('pkg_resources._vendor.packaging._structures',
   '/home/bijay/PycharmProjects/ellipses_ellipses/venv/lib/python3.5/site-packages/setuptools-39.1.0-py3.5.egg/pkg_resources/_vendor/packaging/_structures.py',
   'PYMODULE'),
  ('pkg_resources._vendor.packaging',
   '/home/bijay/PycharmProjects/ellipses_ellipses/venv/lib/python3.5/site-packages/setuptools-39.1.0-py3.5.egg/pkg_resources/_vendor/packaging/__init__.py',
   'PYMODULE'),
  ('pkg_resources._vendor.packaging._compat',
   '/home/bijay/PycharmProjects/ellipses_ellipses/venv/lib/python3.5/site-packages/setuptools-39.1.0-py3.5.egg/pkg_resources/_vendor/packaging/_compat.py',
   'PYMODULE'),
  ('pkg_resources._vendor.six',
   '/home/bijay/PycharmProjects/ellipses_ellipses/venv/lib/python3.5/site-packages/setuptools-39.1.0-py3.5.egg/pkg_resources/_vendor/six.py',
   'PYMODULE'),
  ('pkg_resources._vendor',
   '/home/bijay/PycharmProjects/ellipses_ellipses/venv/lib/python3.5/site-packages/setuptools-39.1.0-py3.5.egg/pkg_resources/_vendor/__init__.py',
   'PYMODULE'),
  ('pkg_resources._vendor.packaging.utils',
   '/home/bijay/PycharmProjects/ellipses_ellipses/venv/lib/python3.5/site-packages/setuptools-39.1.0-py3.5.egg/pkg_resources/_vendor/packaging/utils.py',
   'PYMODULE'),
  ('pkg_resources._vendor.packaging.version',
   '/home/bijay/PycharmProjects/ellipses_ellipses/venv/lib/python3.5/site-packages/setuptools-39.1.0-py3.5.egg/pkg_resources/_vendor/packaging/version.py',
   'PYMODULE'),
  ('pkg_resources._vendor.packaging.markers',
   '/home/bijay/PycharmProjects/ellipses_ellipses/venv/lib/python3.5/site-packages/setuptools-39.1.0-py3.5.egg/pkg_resources/_vendor/packaging/markers.py',
   'PYMODULE'),
  ('distutils.util', '/usr/lib/python3.5/distutils/util.py', 'PYMODULE'),
  ('distutils.filelist',
   '/usr/lib/python3.5/distutils/filelist.py',
   'PYMODULE'),
  ('distutils.debug', '/usr/lib/python3.5/distutils/debug.py', 'PYMODULE'),
  ('distutils.file_util',
   '/usr/lib/python3.5/distutils/file_util.py',
   'PYMODULE'),
  ('distutils.dir_util',
   '/usr/lib/python3.5/distutils/dir_util.py',
   'PYMODULE'),
  ('lib2to3.refactor', '/usr/lib/python3.5/lib2to3/refactor.py', 'PYMODULE'),
  ('lib2to3.btm_matcher',
   '/usr/lib/python3.5/lib2to3/btm_matcher.py',
   'PYMODULE'),
  ('lib2to3.btm_utils', '/usr/lib/python3.5/lib2to3/btm_utils.py', 'PYMODULE'),
  ('lib2to3.pgen2.grammar',
   '/usr/lib/python3.5/lib2to3/pgen2/grammar.py',
   'PYMODULE'),
  ('lib2to3.pygram', '/usr/lib/python3.5/lib2to3/pygram.py', 'PYMODULE'),
  ('lib2to3.pytree', '/usr/lib/python3.5/lib2to3/pytree.py', 'PYMODULE'),
  ('lib2to3', '/usr/lib/python3.5/lib2to3/__init__.py', 'PYMODULE'),
  ('lib2to3.patcomp', '/usr/lib/python3.5/lib2to3/patcomp.py', 'PYMODULE'),
  ('lib2to3.pgen2.parse',
   '/usr/lib/python3.5/lib2to3/pgen2/parse.py',
   'PYMODULE'),
  ('lib2to3.pgen2.literals',
   '/usr/lib/python3.5/lib2to3/pgen2/literals.py',
   'PYMODULE'),
  ('lib2to3.fixer_util',
   '/usr/lib/python3.5/lib2to3/fixer_util.py',
   'PYMODULE'),
  ('lib2to3.pgen2.token',
   '/usr/lib/python3.5/lib2to3/pgen2/token.py',
   'PYMODULE'),
  ('lib2to3.pgen2.tokenize',
   '/usr/lib/python3.5/lib2to3/pgen2/tokenize.py',
   'PYMODULE'),
  ('lib2to3.pgen2.driver',
   '/usr/lib/python3.5/lib2to3/pgen2/driver.py',
   'PYMODULE'),
  ('lib2to3.pgen2.pgen',
   '/usr/lib/python3.5/lib2to3/pgen2/pgen.py',
   'PYMODULE'),
  ('lib2to3.pgen2', '/usr/lib/python3.5/lib2to3/pgen2/__init__.py', 'PYMODULE'),
  ('distutils.sysconfig',
   '/usr/lib/python3.5/distutils/sysconfig.py',
   'PYMODULE'),
  ('_sysconfigdata', '/usr/lib/python3.5/_sysconfigdata.py', 'PYMODULE'),
  ('_sysconfigdata_m',
   '/usr/lib/python3.5/plat-x86_64-linux-gnu/_sysconfigdata_m.py',
   'PYMODULE'),
  ('distutils.text_file',
   '/usr/lib/python3.5/distutils/text_file.py',
   'PYMODULE'),
  ('_osx_support', '/usr/lib/python3.5/_osx_support.py', 'PYMODULE'),
  ('distutils.log', '/usr/lib/python3.5/distutils/log.py', 'PYMODULE'),
  ('distutils', '/usr/lib/python3.5/distutils/__init__.py', 'PYMODULE'),
  ('distutils.spawn', '/usr/lib/python3.5/distutils/spawn.py', 'PYMODULE'),
  ('distutils.dep_util',
   '/usr/lib/python3.5/distutils/dep_util.py',
   'PYMODULE'),
  ('distutils.errors', '/usr/lib/python3.5/distutils/errors.py', 'PYMODULE'),
  ('sysconfig', '/usr/lib/python3.5/sysconfig.py', 'PYMODULE'),
  ('pkg_resources.py31compat',
   '/home/bijay/PycharmProjects/ellipses_ellipses/venv/lib/python3.5/site-packages/setuptools-39.1.0-py3.5.egg/pkg_resources/py31compat.py',
   'PYMODULE'),
  ('pkg_resources.extern',
   '/home/bijay/PycharmProjects/ellipses_ellipses/venv/lib/python3.5/site-packages/setuptools-39.1.0-py3.5.egg/pkg_resources/extern/__init__.py',
   'PYMODULE'),
  ('posixpath', '/usr/lib/python3.5/posixpath.py', 'PYMODULE'),
  ('_strptime', '/usr/lib/python3.5/_strptime.py', 'PYMODULE'),
  ('stringprep', '/usr/lib/python3.5/stringprep.py', 'PYMODULE'),
  ('_compat_pickle', '/usr/lib/python3.5/_compat_pickle.py', 'PYMODULE'),
  ('pickle', '/usr/lib/python3.5/pickle.py', 'PYMODULE'),
  ('__future__', '/usr/lib/python3.5/__future__.py', 'PYMODULE'),
  ('difflib', '/usr/lib/python3.5/difflib.py', 'PYMODULE'),
  ('ast', '/usr/lib/python3.5/ast.py', 'PYMODULE'),
  ('imp', '/usr/lib/python3.5/imp.py', 'PYMODULE'),
  ('inspect', '/usr/lib/python3.5/inspect.py', 'PYMODULE'),
  ('cmd', '/usr/lib/python3.5/cmd.py', 'PYMODULE'),
  ('bdb', '/usr/lib/python3.5/bdb.py', 'PYMODULE'),
  ('opcode', '/usr/lib/python3.5/opcode.py', 'PYMODULE'),
  ('dis', '/usr/lib/python3.5/dis.py', 'PYMODULE'),
  ('codeop', '/usr/lib/python3.5/codeop.py', 'PYMODULE'),
  ('code', '/usr/lib/python3.5/code.py', 'PYMODULE'),
  ('glob', '/usr/lib/python3.5/glob.py', 'PYMODULE'),
  ('shlex', '/usr/lib/python3.5/shlex.py', 'PYMODULE'),
  ('importlib._bootstrap',
   '/usr/lib/python3.5/importlib/_bootstrap.py',
   'PYMODULE'),
  ('importlib._bootstrap_external',
   '/usr/lib/python3.5/importlib/_bootstrap_external.py',
   'PYMODULE'),
  ('importlib.machinery',
   '/usr/lib/python3.5/importlib/machinery.py',
   'PYMODULE'),
  ('importlib.util', '/usr/lib/python3.5/importlib/util.py', 'PYMODULE'),
  ('importlib.abc', '/usr/lib/python3.5/importlib/abc.py', 'PYMODULE'),
  ('importlib', '/usr/lib/python3.5/importlib/__init__.py', 'PYMODULE'),
  ('pkgutil', '/usr/lib/python3.5/pkgutil.py', 'PYMODULE'),
  ('ctypes._endian', '/usr/lib/python3.5/ctypes/_endian.py', 'PYMODULE'),
  ('ctypes', '/usr/lib/python3.5/ctypes/__init__.py', 'PYMODULE'),
  ('ctypes.wintypes', '/usr/lib/python3.5/ctypes/wintypes.py', 'PYMODULE'),
  ('xml', '/usr/lib/python3.5/xml/__init__.py', 'PYMODULE'),
  ('xml.sax.expatreader',
   '/usr/lib/python3.5/xml/sax/expatreader.py',
   'PYMODULE'),
  ('xml.sax.saxutils', '/usr/lib/python3.5/xml/sax/saxutils.py', 'PYMODULE'),
  ('urllib.request', '/usr/lib/python3.5/urllib/request.py', 'PYMODULE'),
  ('getpass', '/usr/lib/python3.5/getpass.py', 'PYMODULE'),
  ('nturl2path', '/usr/lib/python3.5/nturl2path.py', 'PYMODULE'),
  ('ftplib', '/usr/lib/python3.5/ftplib.py', 'PYMODULE'),
  ('netrc', '/usr/lib/python3.5/netrc.py', 'PYMODULE'),
  ('http.cookiejar', '/usr/lib/python3.5/http/cookiejar.py', 'PYMODULE'),
  ('urllib.response', '/usr/lib/python3.5/urllib/response.py', 'PYMODULE'),
  ('urllib.error', '/usr/lib/python3.5/urllib/error.py', 'PYMODULE'),
  ('xml.sax', '/usr/lib/python3.5/xml/sax/__init__.py', 'PYMODULE'),
  ('xml.sax.handler', '/usr/lib/python3.5/xml/sax/handler.py', 'PYMODULE'),
  ('xml.sax._exceptions',
   '/usr/lib/python3.5/xml/sax/_exceptions.py',
   'PYMODULE'),
  ('xml.sax.xmlreader', '/usr/lib/python3.5/xml/sax/xmlreader.py', 'PYMODULE'),
  ('xml.parsers', '/usr/lib/python3.5/xml/parsers/__init__.py', 'PYMODULE'),
  ('xml.parsers.expat', '/usr/lib/python3.5/xml/parsers/expat.py', 'PYMODULE'),
  ('plistlib', '/usr/lib/python3.5/plistlib.py', 'PYMODULE'),
  ('platform', '/usr/lib/python3.5/platform.py', 'PYMODULE'),
  ('urllib.parse', '/usr/lib/python3.5/urllib/parse.py', 'PYMODULE'),
  ('tempfile', '/usr/lib/python3.5/tempfile.py', 'PYMODULE'),
  ('tty', '/usr/lib/python3.5/tty.py', 'PYMODULE'),
  ('pydoc_data', '/usr/lib/python3.5/pydoc_data/__init__.py', 'PYMODULE'),
  ('pydoc_data.topics', '/usr/lib/python3.5/pydoc_data/topics.py', 'PYMODULE'),
  ('html.entities', '/usr/lib/python3.5/html/entities.py', 'PYMODULE'),
  ('html', '/usr/lib/python3.5/html/__init__.py', 'PYMODULE'),
  ('ipaddress', '/usr/lib/python3.5/ipaddress.py', 'PYMODULE'),
  ('ssl', '/usr/lib/python3.5/ssl.py', 'PYMODULE'),
  ('http.client', '/usr/lib/python3.5/http/client.py', 'PYMODULE'),
  ('mimetypes', '/usr/lib/python3.5/mimetypes.py', 'PYMODULE'),
  ('socketserver', '/usr/lib/python3.5/socketserver.py', 'PYMODULE'),
  ('http', '/usr/lib/python3.5/http/__init__.py', 'PYMODULE'),
  ('http.server', '/usr/lib/python3.5/http/server.py', 'PYMODULE'),
  ('uu', '/usr/lib/python3.5/uu.py', 'PYMODULE'),
  ('quopri', '/usr/lib/python3.5/quopri.py', 'PYMODULE'),
  ('email.feedparser', '/usr/lib/python3.5/email/feedparser.py', 'PYMODULE'),
  ('email.parser', '/usr/lib/python3.5/email/parser.py', 'PYMODULE'),
  ('email', '/usr/lib/python3.5/email/__init__.py', 'PYMODULE'),
  ('optparse', '/usr/lib/python3.5/optparse.py', 'PYMODULE'),
  ('calendar', '/usr/lib/python3.5/calendar.py', 'PYMODULE'),
  ('email._parseaddr', '/usr/lib/python3.5/email/_parseaddr.py', 'PYMODULE'),
  ('email.utils', '/usr/lib/python3.5/email/utils.py', 'PYMODULE'),
  ('email.errors', '/usr/lib/python3.5/email/errors.py', 'PYMODULE'),
  ('email.header', '/usr/lib/python3.5/email/header.py', 'PYMODULE'),
  ('email._policybase', '/usr/lib/python3.5/email/_policybase.py', 'PYMODULE'),
  ('email.base64mime', '/usr/lib/python3.5/email/base64mime.py', 'PYMODULE'),
  ('email.encoders', '/usr/lib/python3.5/email/encoders.py', 'PYMODULE'),
  ('email.charset', '/usr/lib/python3.5/email/charset.py', 'PYMODULE'),
  ('base64', '/usr/lib/python3.5/base64.py', 'PYMODULE'),
  ('email._encoded_words',
   '/usr/lib/python3.5/email/_encoded_words.py',
   'PYMODULE'),
  ('random', '/usr/lib/python3.5/random.py', 'PYMODULE'),
  ('email.generator', '/usr/lib/python3.5/email/generator.py', 'PYMODULE'),
  ('email.iterators', '/usr/lib/python3.5/email/iterators.py', 'PYMODULE'),
  ('urllib', '/usr/lib/python3.5/urllib/__init__.py', 'PYMODULE'),
  ('email._header_value_parser',
   '/usr/lib/python3.5/email/_header_value_parser.py',
   'PYMODULE'),
  ('email.headerregistry',
   '/usr/lib/python3.5/email/headerregistry.py',
   'PYMODULE'),
  ('email.quoprimime', '/usr/lib/python3.5/email/quoprimime.py', 'PYMODULE'),
  ('email.contentmanager',
   '/usr/lib/python3.5/email/contentmanager.py',
   'PYMODULE'),
  ('email.policy', '/usr/lib/python3.5/email/policy.py', 'PYMODULE'),
  ('email.message', '/usr/lib/python3.5/email/message.py', 'PYMODULE'),
  ('gzip', '/usr/lib/python3.5/gzip.py', 'PYMODULE'),
  ('tarfile', '/usr/lib/python3.5/tarfile.py', 'PYMODULE'),
  ('bz2', '/usr/lib/python3.5/bz2.py', 'PYMODULE'),
  ('_compression', '/usr/lib/python3.5/_compression.py', 'PYMODULE'),
  ('lzma', '/usr/lib/python3.5/lzma.py', 'PYMODULE'),
  ('py_compile', '/usr/lib/python3.5/py_compile.py', 'PYMODULE'),
  ('zipfile', '/usr/lib/python3.5/zipfile.py', 'PYMODULE'),
  ('shutil', '/usr/lib/python3.5/shutil.py', 'PYMODULE'),
  ('socket', '/usr/lib/python3.5/socket.py', 'PYMODULE'),
  ('webbrowser', '/usr/lib/python3.5/webbrowser.py', 'PYMODULE'),
  ('pydoc', '/usr/lib/python3.5/pydoc.py', 'PYMODULE'),
  ('getopt', '/usr/lib/python3.5/getopt.py', 'PYMODULE'),
  ('pdb', '/usr/lib/python3.5/pdb.py', 'PYMODULE'),
  ('unittest.util', '/usr/lib/python3.5/unittest/util.py', 'PYMODULE'),
  ('unittest.result', '/usr/lib/python3.5/unittest/result.py', 'PYMODULE'),
  ('logging', '/usr/lib/python3.5/logging/__init__.py', 'PYMODULE'),
  ('pprint', '/usr/lib/python3.5/pprint.py', 'PYMODULE'),
  ('unittest.case', '/usr/lib/python3.5/unittest/case.py', 'PYMODULE'),
  ('unittest.suite', '/usr/lib/python3.5/unittest/suite.py', 'PYMODULE'),
  ('fnmatch', '/usr/lib/python3.5/fnmatch.py', 'PYMODULE'),
  ('unittest.loader', '/usr/lib/python3.5/unittest/loader.py', 'PYMODULE'),
  ('unittest.runner', '/usr/lib/python3.5/unittest/runner.py', 'PYMODULE'),
  ('unittest.main', '/usr/lib/python3.5/unittest/main.py', 'PYMODULE'),
  ('unittest.signals', '/usr/lib/python3.5/unittest/signals.py', 'PYMODULE'),
  ('unittest', '/usr/lib/python3.5/unittest/__init__.py', 'PYMODULE'),
  ('doctest', '/usr/lib/python3.5/doctest.py', 'PYMODULE'),
  ('stat', '/usr/lib/python3.5/stat.py', 'PYMODULE'),
  ('genericpath', '/usr/lib/python3.5/genericpath.py', 'PYMODULE'),
  ('string', '/usr/lib/python3.5/string.py', 'PYMODULE'),
  ('ntpath', '/usr/lib/python3.5/ntpath.py', 'PYMODULE'),
  ('signal', '/usr/lib/python3.5/signal.py', 'PYMODULE'),
  ('contextlib', '/usr/lib/python3.5/contextlib.py', 'PYMODULE'),
  ('_threading_local', '/usr/lib/python3.5/_threading_local.py', 'PYMODULE'),
  ('threading', '/usr/lib/python3.5/threading.py', 'PYMODULE'),
  ('selectors', '/usr/lib/python3.5/selectors.py', 'PYMODULE'),
  ('dummy_threading', '/usr/lib/python3.5/dummy_threading.py', 'PYMODULE'),
  ('subprocess', '/usr/lib/python3.5/subprocess.py', 'PYMODULE'),
  ('os', '/usr/lib/python3.5/os.py', 'PYMODULE'),
  ('token', '/usr/lib/python3.5/token.py', 'PYMODULE'),
  ('copy', '/usr/lib/python3.5/copy.py', 'PYMODULE'),
  ('textwrap', '/usr/lib/python3.5/textwrap.py', 'PYMODULE'),
  ('struct', '/usr/lib/python3.5/struct.py', 'PYMODULE'),
  ('gettext', '/usr/lib/python3.5/gettext.py', 'PYMODULE'),
  ('argparse', '/usr/lib/python3.5/argparse.py', 'PYMODULE'),
  ('tokenize', '/usr/lib/python3.5/tokenize.py', 'PYMODULE'),
  ('_dummy_thread', '/usr/lib/python3.5/_dummy_thread.py', 'PYMODULE'),
  ('post_values_handler',
   '/home/bijay/PycharmProjects/ellipses_ellipses/post_values_handler.py',
   'PYMODULE'),
  ('dashboard_display',
   '/home/bijay/PycharmProjects/ellipses_ellipses/dashboard_display.py',
   'PYMODULE'),
  ('user_audit',
   '/home/bijay/PycharmProjects/ellipses_ellipses/user_audit.py',
   'PYMODULE'),
  ('list_part_numbers',
   '/home/bijay/PycharmProjects/ellipses_ellipses/list_part_numbers.py',
   'PYMODULE'),
  ('db_connect',
   '/home/bijay/PycharmProjects/ellipses_ellipses/db_connect.py',
   'PYMODULE'),
  ('psycopg2',
   '/home/bijay/PycharmProjects/ellipses_ellipses/venv/lib/python3.5/site-packages/psycopg2/__init__.py',
   'PYMODULE'),
  ('decimal', '/usr/lib/python3.5/decimal.py', 'PYMODULE'),
  ('_pydecimal', '/usr/lib/python3.5/_pydecimal.py', 'PYMODULE'),
  ('numbers', '/usr/lib/python3.5/numbers.py', 'PYMODULE'),
  ('psycopg2.extensions',
   '/home/bijay/PycharmProjects/ellipses_ellipses/venv/lib/python3.5/site-packages/psycopg2/extensions.py',
   'PYMODULE'),
  ('psycopg2._range',
   '/home/bijay/PycharmProjects/ellipses_ellipses/venv/lib/python3.5/site-packages/psycopg2/_range.py',
   'PYMODULE'),
  ('psycopg2.extras',
   '/home/bijay/PycharmProjects/ellipses_ellipses/venv/lib/python3.5/site-packages/psycopg2/extras.py',
   'PYMODULE'),
  ('psycopg2.sql',
   '/home/bijay/PycharmProjects/ellipses_ellipses/venv/lib/python3.5/site-packages/psycopg2/sql.py',
   'PYMODULE'),
  ('psycopg2._ipaddress',
   '/home/bijay/PycharmProjects/ellipses_ellipses/venv/lib/python3.5/site-packages/psycopg2/_ipaddress.py',
   'PYMODULE'),
  ('psycopg2._json',
   '/home/bijay/PycharmProjects/ellipses_ellipses/venv/lib/python3.5/site-packages/psycopg2/_json.py',
   'PYMODULE'),
  ('json', '/usr/lib/python3.5/json/__init__.py', 'PYMODULE'),
  ('json.encoder', '/usr/lib/python3.5/json/encoder.py', 'PYMODULE'),
  ('json.decoder', '/usr/lib/python3.5/json/decoder.py', 'PYMODULE'),
  ('json.scanner', '/usr/lib/python3.5/json/scanner.py', 'PYMODULE'),
  ('psycopg2.tz',
   '/home/bijay/PycharmProjects/ellipses_ellipses/venv/lib/python3.5/site-packages/psycopg2/tz.py',
   'PYMODULE'),
  ('hashlib', '/usr/lib/python3.5/hashlib.py', 'PYMODULE'),
  ('datetime', '/usr/lib/python3.5/datetime.py', 'PYMODULE'),
  ('flask',
   '/home/bijay/PycharmProjects/ellipses_ellipses/venv/lib/python3.5/site-packages/flask/__init__.py',
   'PYMODULE'),
  ('flask.sessions',
   '/home/bijay/PycharmProjects/ellipses_ellipses/venv/lib/python3.5/site-packages/flask/sessions.py',
   'PYMODULE'),
  ('flask.json.tag',
   '/home/bijay/PycharmProjects/ellipses_ellipses/venv/lib/python3.5/site-packages/flask/json/tag.py',
   'PYMODULE'),
  ('flask._compat',
   '/home/bijay/PycharmProjects/ellipses_ellipses/venv/lib/python3.5/site-packages/flask/_compat.py',
   'PYMODULE'),
  ('werkzeug.http',
   '/home/bijay/PycharmProjects/ellipses_ellipses/venv/lib/python3.5/site-packages/werkzeug/http.py',
   'PYMODULE'),
  ('werkzeug.urls',
   '/home/bijay/PycharmProjects/ellipses_ellipses/venv/lib/python3.5/site-packages/werkzeug/urls.py',
   'PYMODULE'),
  ('werkzeug.wsgi',
   '/home/bijay/PycharmProjects/ellipses_ellipses/venv/lib/python3.5/site-packages/werkzeug/wsgi.py',
   'PYMODULE'),
  ('werkzeug.middleware.shared_data',
   '/home/bijay/PycharmProjects/ellipses_ellipses/venv/lib/python3.5/site-packages/werkzeug/middleware/shared_data.py',
   'PYMODULE'),
  ('werkzeug.middleware',
   '/home/bijay/PycharmProjects/ellipses_ellipses/venv/lib/python3.5/site-packages/werkzeug/middleware/__init__.py',
   'PYMODULE'),
  ('werkzeug.filesystem',
   '/home/bijay/PycharmProjects/ellipses_ellipses/venv/lib/python3.5/site-packages/werkzeug/filesystem.py',
   'PYMODULE'),
  ('werkzeug.middleware.http_proxy',
   '/home/bijay/PycharmProjects/ellipses_ellipses/venv/lib/python3.5/site-packages/werkzeug/middleware/http_proxy.py',
   'PYMODULE'),
  ('werkzeug.middleware.dispatcher',
   '/home/bijay/PycharmProjects/ellipses_ellipses/venv/lib/python3.5/site-packages/werkzeug/middleware/dispatcher.py',
   'PYMODULE'),
  ('werkzeug',
   '/home/bijay/PycharmProjects/ellipses_ellipses/venv/lib/python3.5/site-packages/werkzeug/__init__.py',
   'PYMODULE'),
  ('werkzeug._internal',
   '/home/bijay/PycharmProjects/ellipses_ellipses/venv/lib/python3.5/site-packages/werkzeug/_internal.py',
   'PYMODULE'),
  ('werkzeug._compat',
   '/home/bijay/PycharmProjects/ellipses_ellipses/venv/lib/python3.5/site-packages/werkzeug/_compat.py',
   'PYMODULE'),
  ('werkzeug.datastructures',
   '/home/bijay/PycharmProjects/ellipses_ellipses/venv/lib/python3.5/site-packages/werkzeug/datastructures.py',
   'PYMODULE'),
  ('itsdangerous',
   '/home/bijay/PycharmProjects/ellipses_ellipses/venv/lib/python3.5/site-packages/itsdangerous/__init__.py',
   'PYMODULE'),
  ('itsdangerous.url_safe',
   '/home/bijay/PycharmProjects/ellipses_ellipses/venv/lib/python3.5/site-packages/itsdangerous/url_safe.py',
   'PYMODULE'),
  ('itsdangerous.timed',
   '/home/bijay/PycharmProjects/ellipses_ellipses/venv/lib/python3.5/site-packages/itsdangerous/timed.py',
   'PYMODULE'),
  ('itsdangerous._compat',
   '/home/bijay/PycharmProjects/ellipses_ellipses/venv/lib/python3.5/site-packages/itsdangerous/_compat.py',
   'PYMODULE'),
  ('itsdangerous.signer',
   '/home/bijay/PycharmProjects/ellipses_ellipses/venv/lib/python3.5/site-packages/itsdangerous/signer.py',
   'PYMODULE'),
  ('itsdangerous.serializer',
   '/home/bijay/PycharmProjects/ellipses_ellipses/venv/lib/python3.5/site-packages/itsdangerous/serializer.py',
   'PYMODULE'),
  ('itsdangerous.jws',
   '/home/bijay/PycharmProjects/ellipses_ellipses/venv/lib/python3.5/site-packages/itsdangerous/jws.py',
   'PYMODULE'),
  ('itsdangerous.exc',
   '/home/bijay/PycharmProjects/ellipses_ellipses/venv/lib/python3.5/site-packages/itsdangerous/exc.py',
   'PYMODULE'),
  ('itsdangerous.encoding',
   '/home/bijay/PycharmProjects/ellipses_ellipses/venv/lib/python3.5/site-packages/itsdangerous/encoding.py',
   'PYMODULE'),
  ('itsdangerous._json',
   '/home/bijay/PycharmProjects/ellipses_ellipses/venv/lib/python3.5/site-packages/itsdangerous/_json.py',
   'PYMODULE'),
  ('flask.signals',
   '/home/bijay/PycharmProjects/ellipses_ellipses/venv/lib/python3.5/site-packages/flask/signals.py',
   'PYMODULE'),
  ('flask.templating',
   '/home/bijay/PycharmProjects/ellipses_ellipses/venv/lib/python3.5/site-packages/flask/templating.py',
   'PYMODULE'),
  ('flask.debughelpers',
   '/home/bijay/PycharmProjects/ellipses_ellipses/venv/lib/python3.5/site-packages/flask/debughelpers.py',
   'PYMODULE'),
  ('flask.blueprints',
   '/home/bijay/PycharmProjects/ellipses_ellipses/venv/lib/python3.5/site-packages/flask/blueprints.py',
   'PYMODULE'),
  ('flask.ctx',
   '/home/bijay/PycharmProjects/ellipses_ellipses/venv/lib/python3.5/site-packages/flask/ctx.py',
   'PYMODULE'),
  ('flask.globals',
   '/home/bijay/PycharmProjects/ellipses_ellipses/venv/lib/python3.5/site-packages/flask/globals.py',
   'PYMODULE'),
  ('werkzeug.local',
   '/home/bijay/PycharmProjects/ellipses_ellipses/venv/lib/python3.5/site-packages/werkzeug/local.py',
   'PYMODULE'),
  ('flask.helpers',
   '/home/bijay/PycharmProjects/ellipses_ellipses/venv/lib/python3.5/site-packages/flask/helpers.py',
   'PYMODULE'),
  ('werkzeug.routing',
   '/home/bijay/PycharmProjects/ellipses_ellipses/venv/lib/python3.5/site-packages/werkzeug/routing.py',
   'PYMODULE'),
  ('flask.config',
   '/home/bijay/PycharmProjects/ellipses_ellipses/venv/lib/python3.5/site-packages/flask/config.py',
   'PYMODULE'),
  ('flask.app',
   '/home/bijay/PycharmProjects/ellipses_ellipses/venv/lib/python3.5/site-packages/flask/app.py',
   'PYMODULE'),
  ('flask.testing',
   '/home/bijay/PycharmProjects/ellipses_ellipses/venv/lib/python3.5/site-packages/flask/testing.py',
   'PYMODULE'),
  ('werkzeug.test',
   '/home/bijay/PycharmProjects/ellipses_ellipses/venv/lib/python3.5/site-packages/werkzeug/test.py',
   'PYMODULE'),
  ('werkzeug.wrappers',
   '/home/bijay/PycharmProjects/ellipses_ellipses/venv/lib/python3.5/site-packages/werkzeug/wrappers/__init__.py',
   'PYMODULE'),
  ('werkzeug.wrappers.user_agent',
   '/home/bijay/PycharmProjects/ellipses_ellipses/venv/lib/python3.5/site-packages/werkzeug/wrappers/user_agent.py',
   'PYMODULE'),
  ('werkzeug.useragents',
   '/home/bijay/PycharmProjects/ellipses_ellipses/venv/lib/python3.5/site-packages/werkzeug/useragents.py',
   'PYMODULE'),
  ('werkzeug.wrappers.response',
   '/home/bijay/PycharmProjects/ellipses_ellipses/venv/lib/python3.5/site-packages/werkzeug/wrappers/response.py',
   'PYMODULE'),
  ('werkzeug.wrappers.request',
   '/home/bijay/PycharmProjects/ellipses_ellipses/venv/lib/python3.5/site-packages/werkzeug/wrappers/request.py',
   'PYMODULE'),
  ('werkzeug.wrappers.etag',
   '/home/bijay/PycharmProjects/ellipses_ellipses/venv/lib/python3.5/site-packages/werkzeug/wrappers/etag.py',
   'PYMODULE'),
  ('werkzeug.wrappers.common_descriptors',
   '/home/bijay/PycharmProjects/ellipses_ellipses/venv/lib/python3.5/site-packages/werkzeug/wrappers/common_descriptors.py',
   'PYMODULE'),
  ('werkzeug.wrappers.base_response',
   '/home/bijay/PycharmProjects/ellipses_ellipses/venv/lib/python3.5/site-packages/werkzeug/wrappers/base_response.py',
   'PYMODULE'),
  ('werkzeug.wrappers.base_request',
   '/home/bijay/PycharmProjects/ellipses_ellipses/venv/lib/python3.5/site-packages/werkzeug/wrappers/base_request.py',
   'PYMODULE'),
  ('werkzeug.formparser',
   '/home/bijay/PycharmProjects/ellipses_ellipses/venv/lib/python3.5/site-packages/werkzeug/formparser.py',
   'PYMODULE'),
  ('werkzeug.wrappers.auth',
   '/home/bijay/PycharmProjects/ellipses_ellipses/venv/lib/python3.5/site-packages/werkzeug/wrappers/auth.py',
   'PYMODULE'),
  ('werkzeug.wrappers.accept',
   '/home/bijay/PycharmProjects/ellipses_ellipses/venv/lib/python3.5/site-packages/werkzeug/wrappers/accept.py',
   'PYMODULE'),
  ('click.testing',
   '/home/bijay/PycharmProjects/ellipses_ellipses/venv/lib/python3.5/site-packages/click/testing.py',
   'PYMODULE'),
  ('click',
   '/home/bijay/PycharmProjects/ellipses_ellipses/venv/lib/python3.5/site-packages/click/__init__.py',
   'PYMODULE'),
  ('click.parser',
   '/home/bijay/PycharmProjects/ellipses_ellipses/venv/lib/python3.5/site-packages/click/parser.py',
   'PYMODULE'),
  ('click.formatting',
   '/home/bijay/PycharmProjects/ellipses_ellipses/venv/lib/python3.5/site-packages/click/formatting.py',
   'PYMODULE'),
  ('click._textwrap',
   '/home/bijay/PycharmProjects/ellipses_ellipses/venv/lib/python3.5/site-packages/click/_textwrap.py',
   'PYMODULE'),
  ('click.exceptions',
   '/home/bijay/PycharmProjects/ellipses_ellipses/venv/lib/python3.5/site-packages/click/exceptions.py',
   'PYMODULE'),
  ('click.termui',
   '/home/bijay/PycharmProjects/ellipses_ellipses/venv/lib/python3.5/site-packages/click/termui.py',
   'PYMODULE'),
  ('click._termui_impl',
   '/home/bijay/PycharmProjects/ellipses_ellipses/venv/lib/python3.5/site-packages/click/_termui_impl.py',
   'PYMODULE'),
  ('click.utils',
   '/home/bijay/PycharmProjects/ellipses_ellipses/venv/lib/python3.5/site-packages/click/utils.py',
   'PYMODULE'),
  ('click._winconsole',
   '/home/bijay/PycharmProjects/ellipses_ellipses/venv/lib/python3.5/site-packages/click/_winconsole.py',
   'PYMODULE'),
  ('click.types',
   '/home/bijay/PycharmProjects/ellipses_ellipses/venv/lib/python3.5/site-packages/click/types.py',
   'PYMODULE'),
  ('click.decorators',
   '/home/bijay/PycharmProjects/ellipses_ellipses/venv/lib/python3.5/site-packages/click/decorators.py',
   'PYMODULE'),
  ('click._unicodefun',
   '/home/bijay/PycharmProjects/ellipses_ellipses/venv/lib/python3.5/site-packages/click/_unicodefun.py',
   'PYMODULE'),
  ('click.globals',
   '/home/bijay/PycharmProjects/ellipses_ellipses/venv/lib/python3.5/site-packages/click/globals.py',
   'PYMODULE'),
  ('click.core',
   '/home/bijay/PycharmProjects/ellipses_ellipses/venv/lib/python3.5/site-packages/click/core.py',
   'PYMODULE'),
  ('click._bashcomplete',
   '/home/bijay/PycharmProjects/ellipses_ellipses/venv/lib/python3.5/site-packages/click/_bashcomplete.py',
   'PYMODULE'),
  ('click._compat',
   '/home/bijay/PycharmProjects/ellipses_ellipses/venv/lib/python3.5/site-packages/click/_compat.py',
   'PYMODULE'),
  ('werkzeug.serving',
   '/home/bijay/PycharmProjects/ellipses_ellipses/venv/lib/python3.5/site-packages/werkzeug/serving.py',
   'PYMODULE'),
  ('werkzeug._reloader',
   '/home/bijay/PycharmProjects/ellipses_ellipses/venv/lib/python3.5/site-packages/werkzeug/_reloader.py',
   'PYMODULE'),
  ('werkzeug.debug',
   '/home/bijay/PycharmProjects/ellipses_ellipses/venv/lib/python3.5/site-packages/werkzeug/debug/__init__.py',
   'PYMODULE'),
  ('werkzeug.debug.repr',
   '/home/bijay/PycharmProjects/ellipses_ellipses/venv/lib/python3.5/site-packages/werkzeug/debug/repr.py',
   'PYMODULE'),
  ('werkzeug.debug.console',
   '/home/bijay/PycharmProjects/ellipses_ellipses/venv/lib/python3.5/site-packages/werkzeug/debug/console.py',
   'PYMODULE'),
  ('werkzeug.security',
   '/home/bijay/PycharmProjects/ellipses_ellipses/venv/lib/python3.5/site-packages/werkzeug/security.py',
   'PYMODULE'),
  ('werkzeug.debug.tbtools',
   '/home/bijay/PycharmProjects/ellipses_ellipses/venv/lib/python3.5/site-packages/werkzeug/debug/tbtools.py',
   'PYMODULE'),
  ('flask.wrappers',
   '/home/bijay/PycharmProjects/ellipses_ellipses/venv/lib/python3.5/site-packages/flask/wrappers.py',
   'PYMODULE'),
  ('flask.logging',
   '/home/bijay/PycharmProjects/ellipses_ellipses/venv/lib/python3.5/site-packages/flask/logging.py',
   'PYMODULE'),
  ('flask.json',
   '/home/bijay/PycharmProjects/ellipses_ellipses/venv/lib/python3.5/site-packages/flask/json/__init__.py',
   'PYMODULE'),
  ('flask.cli',
   '/home/bijay/PycharmProjects/ellipses_ellipses/venv/lib/python3.5/site-packages/flask/cli.py',
   'PYMODULE'),
  ('jinja2',
   '/home/bijay/PycharmProjects/ellipses_ellipses/venv/lib/python3.5/site-packages/jinja2/__init__.py',
   'PYMODULE'),
  ('jinja2.ext',
   '/home/bijay/PycharmProjects/ellipses_ellipses/venv/lib/python3.5/site-packages/jinja2/ext.py',
   'PYMODULE'),
  ('jinja2._compat',
   '/home/bijay/PycharmProjects/ellipses_ellipses/venv/lib/python3.5/site-packages/jinja2/_compat.py',
   'PYMODULE'),
  ('jinja2.defaults',
   '/home/bijay/PycharmProjects/ellipses_ellipses/venv/lib/python3.5/site-packages/jinja2/defaults.py',
   'PYMODULE'),
  ('jinja2.tests',
   '/home/bijay/PycharmProjects/ellipses_ellipses/venv/lib/python3.5/site-packages/jinja2/tests.py',
   'PYMODULE'),
  ('jinja2.asyncsupport',
   '/home/bijay/PycharmProjects/ellipses_ellipses/venv/lib/python3.5/site-packages/jinja2/asyncsupport.py',
   'PYMODULE'),
  ('jinja2.utils',
   '/home/bijay/PycharmProjects/ellipses_ellipses/venv/lib/python3.5/site-packages/jinja2/utils.py',
   'PYMODULE'),
  ('markupsafe',
   '/home/bijay/PycharmProjects/ellipses_ellipses/venv/lib/python3.5/site-packages/markupsafe/__init__.py',
   'PYMODULE'),
  ('markupsafe._native',
   '/home/bijay/PycharmProjects/ellipses_ellipses/venv/lib/python3.5/site-packages/markupsafe/_native.py',
   'PYMODULE'),
  ('markupsafe._constants',
   '/home/bijay/PycharmProjects/ellipses_ellipses/venv/lib/python3.5/site-packages/markupsafe/_constants.py',
   'PYMODULE'),
  ('markupsafe._compat',
   '/home/bijay/PycharmProjects/ellipses_ellipses/venv/lib/python3.5/site-packages/markupsafe/_compat.py',
   'PYMODULE'),
  ('jinja2.constants',
   '/home/bijay/PycharmProjects/ellipses_ellipses/venv/lib/python3.5/site-packages/jinja2/constants.py',
   'PYMODULE'),
  ('jinja2.lexer',
   '/home/bijay/PycharmProjects/ellipses_ellipses/venv/lib/python3.5/site-packages/jinja2/lexer.py',
   'PYMODULE'),
  ('jinja2.filters',
   '/home/bijay/PycharmProjects/ellipses_ellipses/venv/lib/python3.5/site-packages/jinja2/filters.py',
   'PYMODULE'),
  ('jinja2.exceptions',
   '/home/bijay/PycharmProjects/ellipses_ellipses/venv/lib/python3.5/site-packages/jinja2/exceptions.py',
   'PYMODULE'),
  ('jinja2.runtime',
   '/home/bijay/PycharmProjects/ellipses_ellipses/venv/lib/python3.5/site-packages/jinja2/runtime.py',
   'PYMODULE'),
  ('jinja2.bccache',
   '/home/bijay/PycharmProjects/ellipses_ellipses/venv/lib/python3.5/site-packages/jinja2/bccache.py',
   'PYMODULE'),
  ('jinja2.loaders',
   '/home/bijay/PycharmProjects/ellipses_ellipses/venv/lib/python3.5/site-packages/jinja2/loaders.py',
   'PYMODULE'),
  ('jinja2.environment',
   '/home/bijay/PycharmProjects/ellipses_ellipses/venv/lib/python3.5/site-packages/jinja2/environment.py',
   'PYMODULE'),
  ('jinja2.debug',
   '/home/bijay/PycharmProjects/ellipses_ellipses/venv/lib/python3.5/site-packages/jinja2/debug.py',
   'PYMODULE'),
  ('jinja2.compiler',
   '/home/bijay/PycharmProjects/ellipses_ellipses/venv/lib/python3.5/site-packages/jinja2/compiler.py',
   'PYMODULE'),
  ('jinja2.idtracking',
   '/home/bijay/PycharmProjects/ellipses_ellipses/venv/lib/python3.5/site-packages/jinja2/idtracking.py',
   'PYMODULE'),
  ('jinja2.optimizer',
   '/home/bijay/PycharmProjects/ellipses_ellipses/venv/lib/python3.5/site-packages/jinja2/optimizer.py',
   'PYMODULE'),
  ('jinja2.visitor',
   '/home/bijay/PycharmProjects/ellipses_ellipses/venv/lib/python3.5/site-packages/jinja2/visitor.py',
   'PYMODULE'),
  ('jinja2.parser',
   '/home/bijay/PycharmProjects/ellipses_ellipses/venv/lib/python3.5/site-packages/jinja2/parser.py',
   'PYMODULE'),
  ('jinja2.nodes',
   '/home/bijay/PycharmProjects/ellipses_ellipses/venv/lib/python3.5/site-packages/jinja2/nodes.py',
   'PYMODULE'),
  ('jinja2._identifier',
   '/home/bijay/PycharmProjects/ellipses_ellipses/venv/lib/python3.5/site-packages/jinja2/_identifier.py',
   'PYMODULE'),
  ('werkzeug.utils',
   '/home/bijay/PycharmProjects/ellipses_ellipses/venv/lib/python3.5/site-packages/werkzeug/utils.py',
   'PYMODULE'),
  ('werkzeug.exceptions',
   '/home/bijay/PycharmProjects/ellipses_ellipses/venv/lib/python3.5/site-packages/werkzeug/exceptions.py',
   'PYMODULE'),
  ('setuptools/gui-64.exe',
   '/home/bijay/PycharmProjects/ellipses_ellipses/build/login_handler/setuptools-39.1.0-py3.5.egg/setuptools/gui-64.exe',
   'DATA'),
  ('setuptools/cli-64.exe',
   '/home/bijay/PycharmProjects/ellipses_ellipses/build/login_handler/setuptools-39.1.0-py3.5.egg/setuptools/cli-64.exe',
   'DATA'),
  ('setuptools/gui.exe',
   '/home/bijay/PycharmProjects/ellipses_ellipses/build/login_handler/setuptools-39.1.0-py3.5.egg/setuptools/gui.exe',
   'DATA'),
  ('setuptools/gui-32.exe',
   '/home/bijay/PycharmProjects/ellipses_ellipses/build/login_handler/setuptools-39.1.0-py3.5.egg/setuptools/gui-32.exe',
   'DATA'),
  ('setuptools/script (dev).tmpl',
   '/home/bijay/PycharmProjects/ellipses_ellipses/build/login_handler/setuptools-39.1.0-py3.5.egg/setuptools/script '
   '(dev).tmpl',
   'DATA'),
  ('setuptools/cli.exe',
   '/home/bijay/PycharmProjects/ellipses_ellipses/build/login_handler/setuptools-39.1.0-py3.5.egg/setuptools/cli.exe',
   'DATA'),
  ('setuptools/cli-32.exe',
   '/home/bijay/PycharmProjects/ellipses_ellipses/build/login_handler/setuptools-39.1.0-py3.5.egg/setuptools/cli-32.exe',
   'DATA'),
  ('setuptools/script.tmpl',
   '/home/bijay/PycharmProjects/ellipses_ellipses/build/login_handler/setuptools-39.1.0-py3.5.egg/setuptools/script.tmpl',
   'DATA'),
  ('setuptools/command/launcher manifest.xml',
   '/home/bijay/PycharmProjects/ellipses_ellipses/build/login_handler/setuptools-39.1.0-py3.5.egg/setuptools/command/launcher '
   'manifest.xml',
   'DATA')])
