('/home/bijay/PycharmProjects/ellipses_ellipses/build/login_handler/setuptools-39.1.0-py3.5.egg',
 None,
 {'*.abi3.so',
  '*.cpython-35m-x86_64-linux-gnu.so',
  '*.py',
  '*.pyc',
  '*.so',
  'EGG-INFO'},
 'DATA',
 [('setuptools/gui-64.exe',
   '/home/bijay/PycharmProjects/ellipses_ellipses/build/login_handler/setuptools-39.1.0-py3.5.egg/setuptools/gui-64.exe',
   'DATA'),
  ('setuptools/cli-64.exe',
   '/home/bijay/PycharmProjects/ellipses_ellipses/build/login_handler/setuptools-39.1.0-py3.5.egg/setuptools/cli-64.exe',
   'DATA'),
  ('setuptools/gui.exe',
   '/home/bijay/PycharmProjects/ellipses_ellipses/build/login_handler/setuptools-39.1.0-py3.5.egg/setuptools/gui.exe',
   'DATA'),
  ('setuptools/gui-32.exe',
   '/home/bijay/PycharmProjects/ellipses_ellipses/build/login_handler/setuptools-39.1.0-py3.5.egg/setuptools/gui-32.exe',
   'DATA'),
  ('setuptools/script (dev).tmpl',
   '/home/bijay/PycharmProjects/ellipses_ellipses/build/login_handler/setuptools-39.1.0-py3.5.egg/setuptools/script '
   '(dev).tmpl',
   'DATA'),
  ('setuptools/cli.exe',
   '/home/bijay/PycharmProjects/ellipses_ellipses/build/login_handler/setuptools-39.1.0-py3.5.egg/setuptools/cli.exe',
   'DATA'),
  ('setuptools/cli-32.exe',
   '/home/bijay/PycharmProjects/ellipses_ellipses/build/login_handler/setuptools-39.1.0-py3.5.egg/setuptools/cli-32.exe',
   'DATA'),
  ('setuptools/script.tmpl',
   '/home/bijay/PycharmProjects/ellipses_ellipses/build/login_handler/setuptools-39.1.0-py3.5.egg/setuptools/script.tmpl',
   'DATA'),
  ('setuptools/command/launcher manifest.xml',
   '/home/bijay/PycharmProjects/ellipses_ellipses/build/login_handler/setuptools-39.1.0-py3.5.egg/setuptools/command/launcher '
   'manifest.xml',
   'DATA')])
